{
  "type": "minecraft:crafting_shaped",
  "pattern": [
    "XXX",
    "XXX",
    "XXX"
  ],
  "key": {
    "X": {
      "item": "ic2rpg:dust_limonite_small"
    }
  },
  "result": {
      "item": "ic2rpg:dust_limonite"
  }
}